def inputTransforms():
    
    return [ #transforms.Pad(requires_parameters),
             transforms.Resize((227,227)), 
             transforms.ToTensor(),
             transforms.Normalize(meanVid, stdVid) ]

class NeuralNet5(nn.Module):

    def __init__(self, num_classes= 8 ):
        super(NeuralNet5, self).__init__()
        self.features = nn.Sequential(
            nn.Conv2d(3, 64, kernel_size=11, stride=4, padding=2),
            nn.ReLU(inplace=True),
            nn.MaxPool2d(kernel_size=3, stride=2),
            nn.Conv2d(64, 192, kernel_size=5, padding=2),
            nn.ReLU(inplace=True),
            nn.MaxPool2d(kernel_size=3, stride=2),
            nn.Conv2d(192, 384, kernel_size=3, padding=1),
            nn.ReLU(inplace=True),
            #nn.Conv2d(384, 256, kernel_size=3, padding=1),
            #nn.ReLU(inplace=True),
            #nn.Conv2d(256, 256, kernel_size=3, padding=1),
            #nn.ReLU(inplace=True),
            nn.MaxPool2d(kernel_size=3, stride=2),
        )
        self.avgpool = nn.AdaptiveAvgPool2d((6, 6))
        self.classifier = nn.Sequential(
            nn.Dropout(),
            nn.Linear(384 * 6 * 6, num_classes),
            #nn.ReLU(inplace=True),
            #nn.Dropout(),
            #nn.Linear(4096, 4096),
            #nn.ReLU(inplace=True),
            #nn.Linear(4096, num_classes),
        )

    def forward(self, x):
        x = self.features(x)
        x = self.avgpool(x)
        x = x.view(x.size(0), 384 * 6 * 6)
        x = self.classifier(x)
        return x

Accuracy of the network on the 0 cross validation images: 73.32105909170612 %
Accuracy per label:[('reach', 40.44), ('squat', 52.42), ('inline', 76.99), ('lunge', 80.37), ('hamstrings', 74.12), ('stretch', 85.16), ('deadbug', 75.27), ('pushup', 86.13)]
Comments: No comments